<svg xmlns="http://www.w3.org/2000/svg" xmlns:xlink="http://www.w3.org/1999/xlink" width="314" height="151" viewBox="0 0 314 151">
    <defs>
        <path id="a" d="M.045 105.382V.267h283.127v105.115H.045z"/>
    </defs>
    <g fill="none" fill-rule="evenodd">
        <g transform="translate(0 42.82)">
            <mask id="b" fill="#fff">
                <use xlink:href="#a"/>
            </mask>
            <path fill="#0173F8" d="M45.699 15.284h27.154a7.508 7.508 0 0 1 0 15.016H33.646a7.509 7.509 0 0 0 0 15.017h18.77a7.508 7.508 0 0 1 0 15.016h-18.77a7.508 7.508 0 0 0 0 15.017h30.865a7.507 7.507 0 0 1 7.508 7.508 7.508 7.508 0 0 1-7.508 7.508h-8.759a7.508 7.508 0 1 0 0 15.016H271.91a7.508 7.508 0 1 0 0-15.016h-16.786a7.508 7.508 0 0 1 0-15.016h16.786a7.509 7.509 0 0 0 0-15.017h-29.773a7.508 7.508 0 0 1-7.508-7.508 7.508 7.508 0 0 1 7.508-7.508h33.528a7.508 7.508 0 0 0 0-15.017h-38.059a7.507 7.507 0 0 1-7.507-7.508 7.507 7.507 0 0 1 7.507-7.508h11.005a7.508 7.508 0 0 0 0-15.017H45.699a7.508 7.508 0 0 0 0 15.017" mask="url(#b)"/>
            <path fill="#30FDB3" d="M7.507 45.594h.28a7.508 7.508 0 0 0 7.507-7.507v-.278a7.508 7.508 0 0 0-7.508-7.51h-.279A7.508 7.508 0 0 0 0 37.81v.278a7.508 7.508 0 0 0 7.507 7.507" mask="url(#b)"/>
        </g>
        <path fill="#30FDB3" d="M298.642 110.523v.278a7.508 7.508 0 0 0 7.507 7.509h.278a7.509 7.509 0 0 0 7.508-7.51v-.277a7.508 7.508 0 0 0-7.508-7.508h-.278a7.508 7.508 0 0 0-7.507 7.508M252.364 140.089h15.016v-15.017h-15.016zM65.523 107.421H80.54V92.404H65.523zM225.106 53.588h20.438V33.445h-20.438zM26.138 55.347h20.438V35.205H26.138z"/>
        <path fill="#677089" d="M83.88 35.656h-3.755a.751.751 0 1 1 0-1.503h3.756a.751.751 0 1 1 0 1.503zm7.513 0h-3.756a.751.751 0 1 1 0-1.503h3.756a.751.751 0 1 1 0 1.503zm7.512 0h-3.756a.751.751 0 1 1 0-1.503h3.756a.751.751 0 1 1 0 1.503zm7.512 0h-3.756a.751.751 0 1 1 0-1.503h3.756a.751.751 0 1 1 0 1.503zm7.512 0h-3.756a.751.751 0 1 1 0-1.503h3.756a.751.751 0 1 1 0 1.503zm7.512 0h-3.756a.751.751 0 1 1 0-1.503h3.756a.751.751 0 1 1 0 1.503zm7.512 0h-3.756a.751.751 0 1 1 0-1.503h3.756a.751.751 0 1 1 0 1.503zm7.512 0h-3.756a.751.751 0 1 1 0-1.503h3.756a.751.751 0 1 1 0 1.503zm7.512 0h-3.756a.751.751 0 1 1 0-1.503h3.756a.751.751 0 1 1 0 1.503zm7.511 0h-3.756a.751.751 0 1 1 0-1.503h3.756a.751.751 0 1 1 0 1.503zm7.512 0h-3.756a.751.751 0 1 1 0-1.503H159a.751.751 0 1 1 0 1.503zm7.512 0h-3.756a.75.75 0 1 1 0-1.503h3.756a.751.751 0 1 1 0 1.503zm7.512 0h-3.756a.75.75 0 1 1 0-1.503h3.756a.751.751 0 1 1 0 1.503zm7.512 0h-3.756a.75.75 0 1 1 0-1.503h3.756a.751.751 0 1 1 0 1.503zm7.512 0h-3.756a.75.75 0 1 1 0-1.503h3.756a.751.751 0 1 1 0 1.503zm7.512 0h-3.756a.75.75 0 1 1 0-1.503h3.756a.751.751 0 1 1 0 1.503zm7.512 0h-3.756a.75.75 0 1 1 0-1.503h3.756a.751.751 0 1 1 0 1.503zm7.512 0h-3.756a.75.75 0 1 1 0-1.503h3.756a.751.751 0 1 1 0 1.503zm7.512 0h-3.756a.75.75 0 1 1 0-1.503h3.756a.751.751 0 1 1 0 1.503zm7.512 0h-3.756a.75.75 0 1 1 0-1.503h3.756a.751.751 0 1 1 0 1.503zm7.512 0h-3.756a.75.75 0 1 1 0-1.503h3.756a.751.751 0 1 1 0 1.503zm7.512 0h-3.756a.75.75 0 1 1 0-1.503h3.756a.751.751 0 1 1 0 1.503zm-168.841.178a.751.751 0 0 1-.751-.752v-.929h4.329a.751.751 0 1 1 0 1.503h-3.093a.745.745 0 0 1-.485.178zM246.31 38.49a.75.75 0 0 1-.751-.752v-2.083h-.171a.75.75 0 1 1 0-1.503h1.673v3.586a.751.751 0 0 1-.751.752zM72.79 43.346a.751.751 0 0 1-.75-.751v-3.756a.751.751 0 0 1 1.502 0v3.756a.751.751 0 0 1-.751.751zm173.52 2.657a.75.75 0 0 1-.751-.751v-3.756a.751.751 0 1 1 1.502 0v3.756a.751.751 0 0 1-.751.751zM72.79 50.858a.751.751 0 0 1-.75-.75V46.35a.751.751 0 0 1 1.502 0v3.756a.751.751 0 0 1-.751.751zm173.52 2.658a.75.75 0 0 1-.751-.752v-3.756a.751.751 0 1 1 1.502 0v3.756a.751.751 0 0 1-.751.752zM72.79 58.37a.751.751 0 0 1-.75-.751v-3.757a.751.751 0 0 1 1.502 0v3.757a.751.751 0 0 1-.751.75zm173.52 2.657a.75.75 0 0 1-.751-.751V56.52a.751.751 0 1 1 1.502 0v3.756a.751.751 0 0 1-.751.751zM72.79 65.883a.751.751 0 0 1-.75-.75v-3.757a.751.751 0 0 1 1.502 0v3.756a.751.751 0 0 1-.751.751zm173.52 2.657a.75.75 0 0 1-.751-.75v-3.757a.751.751 0 1 1 1.502 0v3.756a.751.751 0 0 1-.751.751zM72.79 73.396a.751.751 0 0 1-.75-.751v-3.757a.751.751 0 0 1 1.502 0v3.757a.751.751 0 0 1-.751.75zm173.52 2.657a.75.75 0 0 1-.751-.751v-3.757a.751.751 0 1 1 1.502 0v3.757a.751.751 0 0 1-.751.75zM72.79 80.908a.751.751 0 0 1-.75-.751v-3.756a.751.751 0 0 1 1.502 0v3.756a.751.751 0 0 1-.751.751zm173.52 2.657a.75.75 0 0 1-.751-.75v-3.757a.751.751 0 1 1 1.502 0v3.756a.751.751 0 0 1-.751.751zM72.79 88.421a.751.751 0 0 1-.75-.752v-3.756a.751.751 0 0 1 1.502 0v3.756a.751.751 0 0 1-.751.752zm173.52 2.657a.75.75 0 0 1-.751-.751V86.57a.751.751 0 1 1 1.502 0v3.757a.751.751 0 0 1-.751.75zM72.79 95.933a.751.751 0 0 1-.75-.751v-3.756a.751.751 0 0 1 1.502 0v3.756a.751.751 0 0 1-.751.751zm173.52 2.657a.75.75 0 0 1-.751-.751v-3.756a.751.751 0 1 1 1.502 0v3.756a.751.751 0 0 1-.751.751zm-173.52 4.856a.751.751 0 0 1-.75-.752v-3.756a.751.751 0 0 1 1.502 0v3.756a.751.751 0 0 1-.751.752zm173.52 2.657a.75.75 0 0 1-.751-.752v-3.756a.751.751 0 1 1 1.502 0v3.756a.751.751 0 0 1-.751.752zm-173.52 4.855a.751.751 0 0 1-.75-.751v-3.757a.751.751 0 0 1 1.502 0v3.757a.751.751 0 0 1-.751.751zm173.52 2.657a.75.75 0 0 1-.751-.751v-3.756a.751.751 0 1 1 1.502 0v3.756a.751.751 0 0 1-.751.751zM72.79 118.47a.751.751 0 0 1-.75-.75v-3.757a.751.751 0 0 1 1.502 0v3.756a.751.751 0 0 1-.751.751zm173.52 2.658a.75.75 0 0 1-.751-.752v-3.756a.751.751 0 1 1 1.502 0v3.756a.751.751 0 0 1-.751.752zM73.535 125.24H72.04v-3.765a.751.751 0 0 1 1.502 0v2.262a.751.751 0 0 1-.007 1.503zm7.512 0H77.29a.751.751 0 1 1 0-1.503h3.756a.751.751 0 0 1 0 1.503zm7.512 0h-3.756a.751.751 0 1 1 0-1.503h3.756a.751.751 0 0 1 0 1.503zm7.511 0h-3.756a.751.751 0 1 1 0-1.503h3.756a.751.751 0 0 1 0 1.503zm7.512 0h-3.756a.751.751 0 1 1 0-1.503h3.756a.751.751 0 0 1 0 1.503zm7.512 0h-3.756a.751.751 0 1 1 0-1.503h3.756a.751.751 0 0 1 0 1.503zm7.512 0h-3.756a.751.751 0 1 1 0-1.503h3.756a.751.751 0 0 1 0 1.503zm7.512 0h-3.756a.751.751 0 1 1 0-1.503h3.756a.751.751 0 0 1 0 1.503zm7.512 0h-3.756a.751.751 0 1 1 0-1.503h3.756a.751.751 0 0 1 0 1.503zm7.512 0h-3.756a.751.751 0 1 1 0-1.503h3.756a.751.751 0 0 1 0 1.503zm7.512 0h-3.756a.751.751 0 1 1 0-1.503h3.756a.751.751 0 0 1 0 1.503zm7.512 0h-3.756a.751.751 0 1 1 0-1.503h3.756a.751.751 0 0 1 0 1.503zm7.512 0h-3.756a.751.751 0 1 1 0-1.503h3.756a.751.751 0 0 1 0 1.503zm7.512 0h-3.756a.751.751 0 1 1 0-1.503h3.756a.751.751 0 0 1 0 1.503zm7.512 0h-3.756a.751.751 0 1 1 0-1.503h3.756a.751.751 0 0 1 0 1.503zm7.512 0h-3.756a.751.751 0 1 1 0-1.503h3.756a.751.751 0 0 1 0 1.503zm7.512 0h-3.756a.751.751 0 1 1 0-1.503h3.756a.751.751 0 0 1 0 1.503zm7.512 0h-3.756a.751.751 0 1 1 0-1.503h3.756a.751.751 0 0 1 0 1.503zm7.512 0h-3.756a.751.751 0 1 1 0-1.503h3.756a.751.751 0 0 1 0 1.503zm7.512 0h-3.756a.751.751 0 1 1 0-1.503h3.756a.751.751 0 0 1 0 1.503zm7.512 0h-3.756a.751.751 0 1 1 0-1.503h3.756a.751.751 0 0 1 0 1.503zm7.512 0h-3.756a.751.751 0 1 1 0-1.503h3.756a.751.751 0 0 1 0 1.503zm7.512 0h-3.756a.751.751 0 1 1 0-1.503h3.756a.751.751 0 0 1 0 1.503zm8.263 0h-4.507a.751.751 0 1 1 0-1.503h3.116a.752.752 0 0 1 1.39.396v1.107z"/>
        <path fill="#FFF" d="M230.925 62.332h33.83c5.353 0 9.692 4.34 9.692 9.692v13.7c0 5.352-4.34 9.691-9.692 9.691h-12.862l-4.164 4.164c-.934.934-2.532.273-2.532-1.049v-3.115h-14.272c-5.352 0-9.691-4.339-9.691-9.691v-13.7c0-5.353 4.339-9.692 9.691-9.692"/>
        <path fill="#677089" d="M246.694 100.77a2.25 2.25 0 0 1-.868-.175 2.2 2.2 0 0 1-1.38-2.065v-2.363h-13.52c-5.759 0-10.443-4.685-10.443-10.443v-13.7c0-5.758 4.684-10.443 10.442-10.443h29.778a.751.751 0 0 1 0 1.502h-29.778c-4.93 0-8.94 4.011-8.94 8.941v13.7c0 4.93 4.01 8.94 8.94 8.94h15.023v3.866a.72.72 0 0 0 .453.677.72.72 0 0 0 .797-.16l4.384-4.383h13.173c4.93 0 8.94-4.01 8.94-8.94v-13.7a.751.751 0 1 1 1.503 0v13.7c0 5.758-4.685 10.443-10.443 10.443h-12.55l-3.944 3.943a2.2 2.2 0 0 1-1.567.66"/>
        <path fill="#677089" d="M257.531 76.528a2.423 2.423 0 0 0-2.42 2.42 2.424 2.424 0 0 0 2.42 2.421 2.424 2.424 0 0 0 2.421-2.42 2.423 2.423 0 0 0-2.42-2.421zm0 6.344a3.928 3.928 0 0 1-3.923-3.924 3.928 3.928 0 0 1 3.923-3.923 3.928 3.928 0 0 1 3.924 3.923 3.928 3.928 0 0 1-3.924 3.924zM246.96 76.528a2.423 2.423 0 0 0-2.42 2.42 2.423 2.423 0 0 0 2.42 2.421 2.423 2.423 0 0 0 2.42-2.42 2.423 2.423 0 0 0-2.42-2.421zm0 6.344a3.928 3.928 0 0 1-3.923-3.924 3.928 3.928 0 0 1 3.922-3.923 3.927 3.927 0 0 1 3.922 3.923 3.927 3.927 0 0 1-3.922 3.924zM236.388 76.528a2.423 2.423 0 0 0-2.421 2.42 2.424 2.424 0 0 0 2.42 2.421 2.423 2.423 0 0 0 2.42-2.42 2.423 2.423 0 0 0-2.42-2.421zm0 6.344a3.928 3.928 0 0 1-3.924-3.924 3.928 3.928 0 0 1 3.924-3.923 3.928 3.928 0 0 1 3.922 3.923 3.928 3.928 0 0 1-3.922 3.924z"/>
        <path fill="#FFF" d="M96.54 109.25H62.71c-5.352 0-9.691 4.34-9.691 9.692v13.7c0 5.352 4.339 9.69 9.69 9.69h12.863l4.164 4.165c.934.935 2.532.273 2.532-1.049v-3.115H96.54c5.352 0 9.691-4.34 9.691-9.691v-13.7c0-5.352-4.339-9.692-9.691-9.692"/>
        <path fill="#677089" d="M102.017 141.39a.75.75 0 0 1-.426-1.37 8.945 8.945 0 0 0 3.889-7.378v-13.7c0-4.93-4.01-8.94-8.94-8.94H62.71c-4.93 0-8.94 4.01-8.94 8.94a.751.751 0 0 1-1.503 0c0-5.758 4.685-10.443 10.443-10.443h33.83c5.758 0 10.442 4.685 10.442 10.443v13.7c0 3.444-1.697 6.665-4.54 8.616a.746.746 0 0 1-.425.132M80.77 147.689a2.203 2.203 0 0 1-1.566-.66l-3.943-3.945H62.71c-5.758 0-10.443-4.684-10.443-10.442v-8.292a.751.751 0 0 1 1.503 0v8.292c0 4.93 4.01 8.94 8.94 8.94h13.173l4.383 4.384a.717.717 0 0 0 .799.158.718.718 0 0 0 .452-.676v-3.866H96.54a.751.751 0 0 1 0 1.502H83.02v2.364a2.2 2.2 0 0 1-1.38 2.065c-.285.118-.58.176-.87.176"/>
        <path fill="#677089" d="M74.588 131.355a5.78 5.78 0 0 1-5.773-5.773.751.751 0 1 1 1.502 0 4.276 4.276 0 0 0 4.27 4.27 4.276 4.276 0 0 0 4.271-4.27.751.751 0 1 1 1.503 0 5.78 5.78 0 0 1-5.773 5.773"/>
        <path fill="#677089" d="M84.631 131.355a5.78 5.78 0 0 1-5.773-5.773.751.751 0 1 1 1.503 0 4.276 4.276 0 0 0 4.27 4.27 4.276 4.276 0 0 0 4.27-4.27.751.751 0 1 1 1.503 0 5.78 5.78 0 0 1-5.773 5.773"/>
        <path fill="#FFF" d="M96.415 19.88l-33.83.225c-5.352.035-9.662 4.403-9.626 9.755l.09 13.7a9.691 9.691 0 0 0 9.756 9.627l12.861-.086 4.191 4.136c.94.929 2.535.256 2.526-1.066l-.021-3.114 14.272-.095c5.352-.035 9.662-4.403 9.626-9.756l-.09-13.699c-.036-5.352-4.403-9.663-9.755-9.627"/>
        <path fill="#677089" d="M80.886 58.422c-.57 0-1.123-.223-1.556-.65l-3.97-3.918-12.55.084h-.072c-5.725 0-10.401-4.638-10.44-10.373l-.09-13.7a10.375 10.375 0 0 1 3.009-7.404 10.374 10.374 0 0 1 7.363-3.107l15.138-.116h.006a.751.751 0 0 1 .006 1.502l-15.139.116a8.879 8.879 0 0 0-6.305 2.66 8.883 8.883 0 0 0-2.576 6.34l.09 13.699c.033 4.91 4.038 8.88 8.94 8.88h.06l13.173-.087 4.413 4.355a.72.72 0 0 0 .798.153.72.72 0 0 0 .448-.68l-.026-3.865 15.023-.1c4.93-.033 8.913-4.07 8.88-9l-.09-13.7a8.878 8.878 0 0 0-2.66-6.303 8.882 8.882 0 0 0-6.278-2.577h-.061l-11.818.079h-.005a.751.751 0 0 1-.006-1.503l11.818-.078c2.792.01 5.419 1.05 7.405 3.01a10.378 10.378 0 0 1 3.107 7.363l.09 13.699c.039 5.758-4.614 10.474-10.372 10.512l-13.52.09.015 2.364a2.2 2.2 0 0 1-1.366 2.073 2.26 2.26 0 0 1-.882.182"/>
        <path fill="#677089" d="M61.136 34.547c-.638 0-1.16-.522-1.16-1.161v-3.998c0-.638.522-1.16 1.16-1.16.639 0 1.16.522 1.16 1.16v3.998c0 .639-.521 1.16-1.16 1.16M75.68 34.547c-.638 0-1.16-.522-1.16-1.161v-3.998c0-.638.522-1.16 1.16-1.16.64 0 1.161.522 1.161 1.16v3.998c0 .639-.522 1.16-1.16 1.16M71.401 41.266a1.563 1.563 0 1 1-3.125-.002 1.563 1.563 0 0 1 3.125.002"/>
        <path fill="#30FDB3" d="M182.438 95.974h34.803c8.025 0 14.532-6.508 14.532-14.534V55.776c0-17.638-14.297-31.935-31.934-31.935-17.636 0-31.934 14.297-31.934 31.935V81.44c0 8.026 6.506 14.534 14.533 14.534"/>
        <path fill="#677089" d="M217.24 96.724h-34.803c-8.427 0-15.283-6.856-15.283-15.284V55.776c0-18.024 14.663-32.687 32.684-32.687 6.021 0 11.905 1.651 17.017 4.773a.752.752 0 0 1-.784 1.283 31.125 31.125 0 0 0-16.232-4.553c-17.193 0-31.183 13.989-31.183 31.184V81.44c0 7.6 6.183 13.782 13.781 13.782h34.804c7.598 0 13.78-6.182 13.78-13.782V55.776c0-8.203-3.158-15.948-8.895-21.81a.751.751 0 0 1 1.075-1.05c6.011 6.143 9.323 14.262 9.323 22.86V81.44c0 8.428-6.856 15.284-15.283 15.284"/>
        <path fill="#FFF" d="M193.475 100.463h12.728v-8.98h-12.728z"/>
        <path fill="#677089" d="M194.227 99.712h11.224v-7.477h-11.224v7.477zm-1.502 1.502h14.229V90.732h-14.23v10.482z"/>
        <path fill="#FFF" d="M179.734 60.542v-.005c7.027 0 12.722-5.697 12.722-12.723h24.63a2.856 2.856 0 0 1 2.857 2.857v9.871a3.715 3.715 0 1 1 0 7.431v4.412c0 10.955-8.588 20.216-19.539 20.516-11.362.312-20.67-8.806-20.67-20.098v-4.83a3.716 3.716 0 0 1 0-7.431"/>
        <path fill="#677089" d="M180.486 61.268v.02l-.751.005a2.968 2.968 0 0 0-2.965 2.965 2.968 2.968 0 0 0 2.965 2.963h.751v5.582c0 5.27 2.08 10.197 5.858 13.873 3.777 3.675 8.765 5.626 14.04 5.475 10.37-.285 18.808-9.152 18.808-19.766V67.22h.751a2.967 2.967 0 0 0 2.965-2.963 2.968 2.968 0 0 0-2.965-2.965h-.75V51.71a3.148 3.148 0 0 0-3.146-3.145h-22.86c-.377 6.832-5.87 12.325-12.7 12.703zm19.346 32.392a20.686 20.686 0 0 1-14.535-5.906c-4.072-3.962-6.313-9.272-6.313-14.951v-4.142a4.474 4.474 0 0 1-3.716-4.403 4.474 4.474 0 0 1 3.716-4.404v-.069h.751c6.6 0 11.97-5.37 11.97-11.971v-.752h24.342a4.652 4.652 0 0 1 4.648 4.648v8.144a4.474 4.474 0 0 1 3.715 4.404 4.473 4.473 0 0 1-3.715 4.403v3.724c0 11.42-9.094 20.96-20.27 21.267-.197.006-.396.008-.593.008z"/>
        <path fill="#677089" d="M214.546 65.952a.751.751 0 0 1-.751-.752 4.547 4.547 0 0 0-4.543-4.542 4.547 4.547 0 0 0-4.541 4.542.751.751 0 1 1-1.503 0 6.051 6.051 0 0 1 6.044-6.044 6.051 6.051 0 0 1 6.045 6.044.75.75 0 0 1-.75.752M195.756 65.952a.75.75 0 0 1-.751-.752 4.547 4.547 0 0 0-4.543-4.542 4.547 4.547 0 0 0-4.542 4.542.75.75 0 1 1-1.503 0 6.051 6.051 0 0 1 6.045-6.044 6.052 6.052 0 0 1 6.045 6.044.751.751 0 0 1-.751.752"/>
        <path fill="#FFF" d="M219.71 148.504v-36.28c0-6.495-5.265-11.76-11.76-11.76h-16.221c-6.495 0-11.76 5.265-11.76 11.76v36.28h39.74"/>
        <path fill="#677089" d="M179.969 145.73a.751.751 0 0 1-.752-.751v-32.754c0-6.9 5.613-12.513 12.512-12.513h16.22c3.983 0 7.637 1.831 10.025 5.024a.751.751 0 0 1-1.204.9 10.923 10.923 0 0 0-8.82-4.422h-16.221c-6.07 0-11.01 4.94-11.01 11.01v32.755a.751.751 0 0 1-.75.751M219.71 149.256a.751.751 0 0 1-.752-.752v-36.28a.751.751 0 0 1 1.502 0v36.28a.751.751 0 0 1-.75.752"/>
        <path fill="#FFF" d="M104.66 94.91h10.224V78.306H104.66z"/>
        <path fill="#677089" d="M105.41 94.159h8.723V79.057h-8.722V94.16zm9.474 1.502H104.66a.751.751 0 0 1-.752-.751V78.306c0-.415.336-.751.752-.751h10.224c.416 0 .751.336.751.75V94.91a.751.751 0 0 1-.75.751z"/>
        <path fill="#FFF" d="M109.772 87.118c-11.673 0-21.135-9.463-21.135-21.136v-27.99h42.27v27.99c0 11.673-9.463 21.136-21.135 21.136"/>
        <path fill="#677089" d="M89.389 38.743v27.239c0 11.24 9.143 20.385 20.383 20.385 11.24 0 20.384-9.145 20.384-20.385V38.743H89.389zm20.383 49.126c-12.068 0-21.886-9.819-21.886-21.887v-27.99c0-.415.336-.751.751-.751h42.27c.415 0 .751.336.751.75v27.99c0 12.07-9.818 21.888-21.886 21.888z"/>
        <path fill="#30FDB3" d="M129.952 34.124c.008-.15.022-.298.022-.449 0-4.33-3.543-7.874-7.873-7.874-3.654 0-6.738 2.525-7.616 5.914-.799-2.116-2.844-3.635-5.231-3.635-2.696 0-4.962 1.933-5.482 4.481-.706-2.84-3.278-4.965-6.328-4.965-3.59 0-6.527 2.938-6.527 6.528h-1.325a5.928 5.928 0 0 0-5.928 5.929v24.325a4.973 4.973 0 0 0 4.973 4.973l3.03-21.464A5.681 5.681 0 0 1 97.293 43h24.959c2.83 0 5.229 2.084 5.625 4.887l3.03 21.464a4.973 4.973 0 0 0 4.972-4.973V40.053a5.928 5.928 0 0 0-5.927-5.93"/>
        <path fill="#677089" d="M83.664 43.75a.751.751 0 0 1-.75-.75v-2.947a6.687 6.687 0 0 1 6.678-6.68h.612c.377-3.662 3.48-6.528 7.24-6.528a.751.751 0 0 1 0 1.502 5.783 5.783 0 0 0-5.776 5.777.751.751 0 0 1-.751.751h-1.325a5.183 5.183 0 0 0-5.176 5.178V43a.751.751 0 0 1-.752.75M130.907 70.102a.752.752 0 0 1-.744-.647l-3.03-21.463a4.953 4.953 0 0 0-4.881-4.241h-24.96a4.953 4.953 0 0 0-4.881 4.24l-3.03 21.464a.752.752 0 0 1-.744.647 5.731 5.731 0 0 1-5.724-5.724V46.002a.751.751 0 0 1 1.503 0v18.376a4.229 4.229 0 0 0 3.575 4.172l2.932-20.768c.446-3.155 3.184-5.534 6.369-5.534h24.96c3.185 0 5.923 2.379 6.369 5.534l2.931 20.768a4.229 4.229 0 0 0 3.576-4.172V40.053a5.183 5.183 0 0 0-5.176-5.178.75.75 0 0 1-.75-.795l.008-.133c.006-.09.013-.18.013-.272a7.13 7.13 0 0 0-7.123-7.123c-3.239 0-6.072 2.2-6.888 5.352a.751.751 0 0 1-1.43.076c-.71-1.883-2.53-3.149-4.528-3.149a4.863 4.863 0 0 0-4.746 3.881.75.75 0 0 1-1.465.031 5.819 5.819 0 0 0-2.217-3.289.752.752 0 0 1 .886-1.213 7.358 7.358 0 0 1 2.041 2.278 6.371 6.371 0 0 1 5.501-3.19c2.028 0 3.916.993 5.096 2.586a8.62 8.62 0 0 1 7.75-4.866c4.67 0 8.485 3.73 8.622 8.368 3.321.383 5.909 3.213 5.909 6.636v24.325a5.73 5.73 0 0 1-5.724 5.724"/>
        <path fill="#FFF" d="M94.3 59.495a4.273 4.273 0 1 1-8.544 0 4.273 4.273 0 0 1 8.545 0"/>
        <path fill="#677089" d="M89.433 64.477a.725.725 0 0 1-.106-.008c-2.463-.344-4.322-2.483-4.322-4.975a5.03 5.03 0 0 1 5.726-4.975.751.751 0 0 1-.21 1.488 3.525 3.525 0 0 0-4.013 3.487 3.534 3.534 0 0 0 3.028 3.487.751.751 0 0 1-.103 1.496"/>
        <path fill="#FFF" d="M125.223 59.495a4.273 4.273 0 1 0 8.545 0 4.273 4.273 0 0 0-8.545 0"/>
        <path fill="#677089" d="M130.091 64.477a.751.751 0 0 1-.103-1.496 3.534 3.534 0 0 0 3.028-3.487 3.525 3.525 0 0 0-4.013-3.487.751.751 0 0 1-.21-1.488 5.025 5.025 0 0 1 5.725 4.975c0 2.492-1.858 4.63-4.321 4.975a.715.715 0 0 1-.106.008M102.365 58.127a2.072 2.072 0 1 1-4.145 0 2.072 2.072 0 0 1 4.145 0M121.323 58.127a2.072 2.072 0 1 1-4.144 0 2.072 2.072 0 0 1 4.144 0"/>
        <path fill="#FFF" d="M128.19 150.425H91.353V102.06a7.15 7.15 0 0 1 7.15-7.15h22.536a7.15 7.15 0 0 1 7.15 7.15v48.366"/>
        <path fill="#677089" d="M91.354 148.954a.751.751 0 0 1-.75-.75v-46.289c0-4.277 3.479-7.756 7.755-7.756h22.825c4.277 0 7.757 3.48 7.757 7.756v42.594a.751.751 0 1 1-1.503 0v-42.594a6.26 6.26 0 0 0-6.254-6.254H98.36a6.26 6.26 0 0 0-6.253 6.254v46.288a.751.751 0 0 1-.752.751"/>
        <path fill="#30FDB3" d="M126.695 148.203v-89.39c0-17.003 13.782-30.786 30.784-30.786s30.785 13.783 30.785 30.786v89.39h-61.569z"/>
        <path fill="#677089" d="M188.264 106.972a.751.751 0 0 1-.751-.751V58.813c0-16.562-13.474-30.035-30.033-30.035-16.56 0-30.034 13.473-30.034 30.035v33.591a.751.751 0 1 1-1.502 0V58.813c0-17.39 14.147-31.538 31.536-31.538 17.389 0 31.535 14.148 31.535 31.538v47.408a.751.751 0 0 1-.751.75M126.695 99.841a.751.751 0 0 1-.751-.751v-3.445a.751.751 0 0 1 1.502 0v3.445a.751.751 0 0 1-.75.751M126.695 148.954a.751.751 0 0 1-.751-.75v-39.848a.751.751 0 0 1 1.502 0v39.847a.751.751 0 0 1-.75.751M188.264 148.954a.75.75 0 0 1-.751-.75v-37.168a.75.75 0 1 1 1.502 0v37.167a.75.75 0 0 1-.751.751"/>
        <path fill="#FFF" d="M151.345 101.891h12.27v-8.656h-12.27z"/>
        <path fill="#677089" d="M152.096 101.14h10.767v-7.154h-10.767v7.154zm-1.502 1.502h13.771V92.483h-13.771v10.16z"/>
        <path fill="#FFF" d="M176.86 63.407v-.005c-6.773 0-12.264-5.492-12.264-12.266h-23.744a2.755 2.755 0 0 0-2.754 2.755v9.516a3.582 3.582 0 1 0 0 7.163v4.253c0 10.562 8.28 19.489 18.837 19.779 10.953.3 19.926-8.49 19.926-19.375V70.57a3.581 3.581 0 1 0 0-7.163"/>
        <path fill="#677089" d="M138.098 64.158c-1.56 0-2.83 1.27-2.83 2.83a2.835 2.835 0 0 0 2.83 2.832h.752v5.004c0 10.218 8.122 18.753 18.106 19.027 5.082.132 9.88-1.733 13.514-5.27a18.486 18.486 0 0 0 5.64-13.354V69.82h.75c1.561 0 2.831-1.27 2.831-2.832 0-1.56-1.27-2.83-2.83-2.83l-.751-.026c-6.58-.377-11.868-5.664-12.243-12.244h-22.013a3.009 3.009 0 0 0-3.004 3.005v9.265h-.752zm19.387 31.203c-.19 0-.38-.003-.57-.009-10.79-.296-19.568-9.505-19.568-20.528v-3.567a4.341 4.341 0 0 1-3.581-4.269 4.34 4.34 0 0 1 3.581-4.267v-7.828a4.513 4.513 0 0 1 4.507-4.508h23.493v.751c0 6.35 5.166 11.515 11.514 11.515h.751v.07a4.34 4.34 0 0 1 3.582 4.267 4.341 4.341 0 0 1-3.582 4.269v3.97c0 5.482-2.164 10.607-6.094 14.432a19.976 19.976 0 0 1-14.033 5.702z"/>
        <path fill="#C5CAE9" d="M152.376 81.714a5.103 5.103 0 0 0 10.207 0h-10.207"/>
        <path fill="#FFF" d="M138.324 150.05v-36.821c0-6.262 5.076-11.338 11.337-11.338h15.637c6.262 0 11.337 5.076 11.337 11.338v34.974l-38.311 1.847"/>
        <path fill="#677089" d="M176.636 148.954a.75.75 0 0 1-.752-.75V113.23c0-5.838-4.749-10.588-10.586-10.588h-15.637c-3.37 0-6.461 1.55-8.483 4.253a.752.752 0 0 1-1.202-.9c2.307-3.085 5.837-4.855 9.685-4.855h15.637c6.666 0 12.089 5.423 12.089 12.09v34.973a.751.751 0 0 1-.751.751M138.325 148.954a.75.75 0 0 1-.752-.75V113.23a.75.75 0 1 1 1.503 0v34.973a.751.751 0 0 1-.751.751"/>
        <path fill="#FFF" d="M160.602 142.027h-6.96a4.572 4.572 0 0 1-4.572-4.572v-19.653a4.572 4.572 0 0 1 4.572-4.573h6.96a4.572 4.572 0 0 1 4.573 4.573v19.653a4.572 4.572 0 0 1-4.573 4.572"/>
        <path fill="#677089" d="M153.642 113.981a3.825 3.825 0 0 0-3.82 3.82v19.654a3.825 3.825 0 0 0 3.82 3.82h6.96a3.825 3.825 0 0 0 3.821-3.82v-19.653a3.825 3.825 0 0 0-3.82-3.821h-6.96zm6.96 28.797h-6.96a5.33 5.33 0 0 1-5.323-5.323v-19.653a5.329 5.329 0 0 1 5.323-5.324h6.96a5.329 5.329 0 0 1 5.324 5.324v19.653a5.33 5.33 0 0 1-5.323 5.323z"/>
        <path fill="#B2ECF2" d="M160.803 120.872a2.593 2.593 0 1 1-5.185.001 2.593 2.593 0 0 1 5.185 0"/>
        <path fill="#677089" d="M157.122 123.128a3.348 3.348 0 0 1-3.344-3.344c0-1.844 1.5-3.344 3.344-3.344a.751.751 0 0 1 0 1.502 1.844 1.844 0 0 0-1.841 1.842c0 1.016.826 1.842 1.841 1.842a1.843 1.843 0 0 0 1.842-1.842.751.751 0 1 1 1.502 0c0 1.844-1.5 3.344-3.344 3.344M158.048 126.302a.926.926 0 1 1-1.851.002.926.926 0 0 1 1.85-.002"/>
        <path fill="#FFF" d="M165.175 120.872v6.356h-1.594c-3.272 0-6.08 2.56-6.14 5.832a5.944 5.944 0 0 0 5.943 6.055h3.086a2.32 2.32 0 0 0 2.32-2.32v-13.602a2.32 2.32 0 0 0-2.32-2.32h-1.295"/>
        <path fill="#677089" d="M163.581 127.98c-2.92 0-5.337 2.285-5.388 5.094a5.157 5.157 0 0 0 1.486 3.735 5.153 5.153 0 0 0 3.705 1.555h3.086a1.57 1.57 0 0 0 1.57-1.569v-13.602c0-.866-.704-1.57-1.57-1.57h-.544v5.605a.751.751 0 0 1-.751.752h-1.594zm2.89 11.887h-3.087a6.644 6.644 0 0 1-4.776-2.005 6.648 6.648 0 0 1-1.917-4.815c.066-3.623 3.157-6.57 6.89-6.57h.842v-5.605c0-.415.336-.751.752-.751h1.295a3.075 3.075 0 0 1 3.072 3.072v13.602a3.075 3.075 0 0 1-3.072 3.072zM86.398 84.834c-.978 0-1.773.796-1.773 1.774 0 .977.795 1.773 1.773 1.773.977 0 1.773-.796 1.773-1.773 0-.978-.796-1.774-1.773-1.774zm0 5.05a3.28 3.28 0 0 1-3.276-3.276 3.28 3.28 0 0 1 3.276-3.276 3.28 3.28 0 0 1 3.275 3.276 3.28 3.28 0 0 1-3.275 3.275zM89.06 23.508a.821.821 0 0 0 0 1.64.821.821 0 0 0 0-1.64zm0 3.142a2.325 2.325 0 0 1-2.322-2.322 2.325 2.325 0 0 1 2.322-2.323 2.325 2.325 0 0 1 2.322 2.323 2.325 2.325 0 0 1-2.322 2.322zM252.837 16.766c-1.14 0-2.066.927-2.066 2.066 0 1.14.926 2.066 2.066 2.066 1.14 0 2.066-.926 2.066-2.066a2.068 2.068 0 0 0-2.066-2.066zm0 5.635a3.572 3.572 0 0 1-3.568-3.569c0-1.967 1.6-3.568 3.568-3.568 1.967 0 3.568 1.6 3.568 3.568s-1.6 3.569-3.568 3.569zM96.276 1.69c-.932 0-1.69.758-1.69 1.69 0 .933.758 1.69 1.69 1.69.933 0 1.69-.757 1.69-1.69 0-.932-.757-1.69-1.69-1.69zm0 4.883a3.197 3.197 0 0 1-3.192-3.192A3.197 3.197 0 0 1 96.276.188 3.197 3.197 0 0 1 99.47 3.38a3.197 3.197 0 0 1-3.193 3.192zM255.972 101.58a1.966 1.966 0 0 0-1.964 1.965c0 1.083.88 1.964 1.964 1.964a1.966 1.966 0 0 0 1.963-1.964 1.966 1.966 0 0 0-1.963-1.964zm0 5.432a3.47 3.47 0 0 1-3.466-3.467 3.47 3.47 0 0 1 3.466-3.467 3.47 3.47 0 0 1 3.466 3.467 3.47 3.47 0 0 1-3.466 3.467zM269.14 121.5a1.966 1.966 0 0 0-1.964 1.965c0 1.084.882 1.964 1.964 1.964 1.083 0 1.964-.88 1.964-1.964a1.967 1.967 0 0 0-1.964-1.964zm0 5.432a3.47 3.47 0 0 1-3.466-3.467 3.47 3.47 0 0 1 3.466-3.467 3.471 3.471 0 0 1 3.467 3.467 3.47 3.47 0 0 1-3.467 3.467zM49.517 136.587a.916.916 0 0 0 0 1.83.916.916 0 0 0 0-1.83zm0 3.332a2.42 2.42 0 0 1-2.416-2.417 2.42 2.42 0 0 1 2.416-2.418 2.42 2.42 0 0 1 2.418 2.418 2.42 2.42 0 0 1-2.418 2.417zM64.792 74.811a2.003 2.003 0 1 1-4.007 0 2.003 2.003 0 0 1 4.007 0M47.512 96.644a1.753 1.753 0 1 1-3.506 0 1.753 1.753 0 0 1 3.506 0M229.254 135.836a1.753 1.753 0 1 1-3.506 0 1.753 1.753 0 0 1 3.506 0"/>
        <path fill="#FFF" d="M82.414 108.769c0-5.393 4.372-9.766 9.765-9.766 5.393 0 9.765 4.373 9.765 9.766 0 3.523-1.872 6.602-4.67 8.32v6.71h-9.85v-6.504a9.758 9.758 0 0 1-5.01-8.526"/>
        <path fill="#677089" d="M85.274 109.52a.751.751 0 0 1-.75-.751c0-2.144.907-4.204 2.49-5.652a.75.75 0 1 1 1.014 1.11 6.17 6.17 0 0 0-2.003 4.542.751.751 0 0 1-.75.751M89.492 103.158a.752.752 0 0 1-.293-1.443 7.604 7.604 0 0 1 2.98-.603.751.751 0 1 1 0 1.503c-.83 0-1.637.163-2.395.483a.742.742 0 0 1-.292.06"/>
        <path fill="#677089" d="M97.274 124.55h-9.85a.751.751 0 0 1-.751-.751v-6.075a10.53 10.53 0 0 1-5.01-8.955c0-5.8 4.718-10.517 10.516-10.517 3.09 0 6.01 1.35 8.014 3.707a.751.751 0 0 1-1.145.973 9.004 9.004 0 0 0-6.869-3.177c-4.97 0-9.013 4.043-9.013 9.014a9.028 9.028 0 0 0 4.625 7.87.751.751 0 0 1 .384.656v5.753h8.348v-5.96c0-.26.136-.503.358-.64 2.7-1.657 4.312-4.528 4.312-7.68a8.945 8.945 0 0 0-.8-3.716.753.753 0 0 1 1.37-.62 10.45 10.45 0 0 1 .932 4.337c0 3.536-1.737 6.768-4.67 8.73v6.3a.751.751 0 0 1-.751.751M96.971 126.843h-9.584a.751.751 0 0 1 0-1.502h9.584a.751.751 0 0 1 0 1.502M95.385 129.203h-6.411a.751.751 0 0 1 0-1.502h6.41a.751.751 0 1 1 0 1.502M94.575 131.811h-4.791a.751.751 0 0 1 0-1.503h4.79a.75.75 0 1 1 0 1.503"/>
        <path fill="#FFF" d="M88.598 117.003v3.86h2.41a3.372 3.372 0 0 1 3.372 3.372v4.877c0 1.861-1.51 3.37-3.372 3.37h-3.195a2.624 2.624 0 0 1-2.625-2.624v-12.855a1.705 1.705 0 1 1 3.41 0"/>
        <path fill="#677089" d="M86.893 116.05a.955.955 0 0 0-.954.953v12.855c0 1.033.84 1.873 1.873 1.873h3.196a2.622 2.622 0 0 0 2.62-2.62v-4.876a2.623 2.623 0 0 0-2.62-2.62h-2.41a.751.751 0 0 1-.75-.751v-3.86a.955.955 0 0 0-.955-.955zm4.115 17.184h-3.196a3.38 3.38 0 0 1-3.375-3.376v-12.855a2.459 2.459 0 0 1 2.456-2.456 2.459 2.459 0 0 1 2.457 2.456v3.11h1.658a4.127 4.127 0 0 1 4.123 4.122v4.877a4.127 4.127 0 0 1-4.123 4.122z"/>
        <path fill="#FFF" d="M213.696 137.608h8.2v-30.671l-4.1-10.293-4.1 10.293v30.671"/>
        <path fill="#677089" d="M214.447 136.857h6.698v-29.776l-3.35-8.407-3.348 8.407v29.776zm7.45 1.503h-8.201a.751.751 0 0 1-.751-.752v-30.671c0-.096.018-.19.054-.278l4.1-10.293a.75.75 0 0 1 1.395 0l4.1 10.293a.747.747 0 0 1 .054.278v30.671a.751.751 0 0 1-.751.752z"/>
        <path fill="#677089" d="M221.897 134.573h-7.966v3.035l8.263.204-.297-3.24M220.049 102.298h-4.131l1.878-5.09 2.253 5.09"/>
        <path fill="#FFF" d="M222.107 113.386v6.355h-1.593c-3.273 0-6.08 2.56-6.14 5.833a5.943 5.943 0 0 0 5.943 6.054h3.086a2.32 2.32 0 0 0 2.32-2.32v-13.602a2.32 2.32 0 0 0-2.32-2.32h-1.296"/>
        <path fill="#677089" d="M220.514 120.493c-2.92 0-5.338 2.286-5.388 5.095a5.153 5.153 0 0 0 1.485 3.734 5.155 5.155 0 0 0 3.706 1.555h3.086a1.57 1.57 0 0 0 1.569-1.568v-13.603a1.57 1.57 0 0 0-1.569-1.569h-.545v5.604a.751.751 0 0 1-.751.752h-1.593zm2.89 11.887h-3.087a6.641 6.641 0 0 1-4.778-2.005 6.644 6.644 0 0 1-1.915-4.815c.066-3.623 3.156-6.57 6.89-6.57h.842v-5.604a.75.75 0 0 1 .75-.751h1.297a3.075 3.075 0 0 1 3.071 3.07v13.604a3.075 3.075 0 0 1-3.07 3.07z"/>
    </g>
</svg>
